6 Week 3: Find Actionable Insights, Quickly (In-Class) – Applied Data Analysis for Chinese Lending Data Using R & LLMs
…
Let’s use what we just learned to investigate something interesting: How has Chinese development finance shifted between regions and countries over time? This is a perfect example where pivoting can reveal patterns that aren’t obvious at first glance.

# First, let's get our annual lending data by country
country_lending <- get_gcdf3_dataset() |>
  filter(recommended_for_aggregates == "Yes") |>
  select(
    country_name,
    commitment_year,
    amount_constant_usd_2021,
    flow_class
  )

country_lending

# A tibble: 17,957 × 4
   country_name commitment_year amount_constant_usd_2021 flow_class
   <chr>                  <int>                    <dbl> <chr>     
 1 Afghanistan             2021                 7111456. ODA-like  
 2 Afghanistan             2021                12600000  ODA-like  
 3 Afghanistan             2021                14400000  ODA-like  
 4 Afghanistan             2021                13000000  ODA-like  
 5 Afghanistan             2021                 7500000  ODA-like  
 6 Afghanistan             2021                      NA  ODA-like  
 7 Afghanistan             2021                 3600000  ODA-like  
 8 Afghanistan             2021                      NA  ODA-like  
 9 Afghanistan             2021                      NA  ODA-like  
10 Afghanistan             2021                      NA  ODA-like  
# ℹ 17,947 more rows
…
Here’s why this is tricky: 1. We need totals by year (denominator) 2. We need each country’s amount by year (numerator) 3. We need to divide these to get shares

Let’s do this step by step:

# Step 1: Calculate yearly totals
yearly_totals <- country_lending |>
  group_by(commitment_year) |>
  summarize(
    total_lending = sum(amount_constant_usd_2021, na.rm = TRUE),
    .groups = "drop"
  )
yearly_totals

# A tibble: 22 × 2
   commitment_year total_lending
             <int>         <dbl>
 1            2000   5449254748.
 2            2001   7865090260.
 3            2002   7583262571.
 4            2003  10898980576.
 5            2004   9633489123.
 6            2005  30759430968.
 7            2006  34404872463.
 8            2007  37657969766.
 9            2008  43062533399.
10            2009 124014128471.
# ℹ 12 more rows
# Step 2: Calculate each country's yearly amount
country_shares <- country_lending |>
  group_by(commitment_year, country_name) |>
  summarize(
    country_amount = sum(amount_constant_usd_2021, na.rm = TRUE),
    .groups = "drop"
  ) |>
  # Join with totals
  left_join(yearly_totals, by = "commitment_year") |>
  # Calculate shares
  mutate(share = country_amount / total_lending * 100)

country_shares

# A tibble: 2,594 × 5
   commitment_year country_name     country_amount total_lending  share
             <int> <chr>                     <dbl>         <dbl>  <dbl>
 1            2000 Afghanistan            1283228.   5449254748. 0.0235
 2            2000 Africa, regional             0    5449254748. 0     
 3            2000 Albania                3079748.   5449254748. 0.0565
 4            2000 Algeria                      0    5449254748. 0     
 5            2000 Angola                       0    5449254748. 0     
 6            2000 Bangladesh           284264555.   5449254748. 5.22  
 7            2000 Belarus                1550075.   5449254748. 0.0284
 8            2000 Benin                 46502250.   5449254748. 0.853 
 9            2000 Botswana               6042354.   5449254748. 0.111 
10            2000 Bulgaria               1550075.   5449254748. 0.0284
# ℹ 2,584 more rows
…
Let’s use our “pivot dance” pattern to make this more insightful:

# Pivot wider to compare countries over time
country_shares_wide <- country_shares |>
  select(commitment_year, country_name, share) |>
  pivot_wider(
    names_from = commitment_year,
    values_from = share,
    values_fill = 0
  )

country_shares_wide

# A tibble: 153 × 23
   country_name     `2000`  `2001` `2002` `2003`   `2004`  `2005` `2006`  `2007`
   <chr>             <dbl>   <dbl>  <dbl>  <dbl>    <dbl>   <dbl>  <dbl>   <dbl>
 1 Afghanistan      0.0235  0.0358 0.237  0.159   0.759   0.183   0.0775 6.70e-2
 2 Africa, regional 0       0.0637 0      0       0.00286 0       1.33   0      
 3 Albania          0.0565  1.27   0      0.0145  0.0712  0.00871 0      0      
 4 Algeria          0       0      0      0.461   0.0286  0.212   0      2.45e-3
 5 Angola           0       0.211  6.52   0.246  10.3     9.30    7.14   1.04e+1
 6 Bangladesh       5.22   10.2    0.637  0       0.0224  0.366   0.0370 1.11e-2
 7 Belarus          0.0284  0.0384 0.0398 0.0141  0.0143  1.67    0      2.49e-1
 8 Benin            0.853   0.309  0.901  0       0.0534  0.552   0.0222 1.01e-1
 9 Botswana         0.111   0.454  0      0.748   0       0       0.159  9.37e-2
10 Bulgaria         0.0284  0.660  0      0       0       0.00438 0      3.77e-4
# ℹ 143 more rows
# ℹ 14 more variables: `2008` <dbl>, `2009` <dbl>, `2010` <dbl>, `2011` <dbl>,
#   `2012` <dbl>, `2013` <dbl>, `2014` <dbl>, `2015` <dbl>, `2016` <dbl>,
#   `2017` <dbl>, `2018` <dbl>, `2019` <dbl>, `2020` <dbl>, `2021` <dbl>
…
6.6.6 Your Turn: More Complex Patterns

Let’s try something more sophisticated. What if we want to understand how the composition of lending (ODA-like vs OOF-like) has changed in different regions?

# Start with the data
lending_composition <- get_gcdf3_dataset() |>
  filter(recommended_for_aggregates == "Yes") |>
  group_by(commitment_year, recipient_region, flow_class) |>
  summarize(
    amount_bn = sum(amount_constant_usd_2021, na.rm = TRUE) / 1e9,
    .groups = "drop"
  )
lending_composition

# A tibble: 371 × 4
   commitment_year recipient_region flow_class               amount_bn
             <int> <chr>            <chr>                        <dbl>
 1            2000 Africa           ODA-like                   0.359  
 2            2000 Africa           OOF-like                   0.994  
 3            2000 America          ODA-like                   0.0890 
 4            2000 America          OOF-like                   0      
 5            2000 America          Vague (Official Finance)   0      
 6            2000 Asia             ODA-like                   0.964  
 7            2000 Asia             OOF-like                   2.55   
 8            2000 Europe           ODA-like                   0.00308
 9            2000 Europe           OOF-like                   0.00438
10            2000 Middle East      ODA-like                   0.00248
# ℹ 361 more rows
# Now let's pivot to make comparisons easy
composition_wide <- lending_composition |>
  pivot_wider(
    names_from = flow_class,
    values_from = amount_bn,
    values_fill = 0 # what to put when there is no value
  ) |>
  mutate(
    total = `ODA-like` + `OOF-like` + `Vague (Official Finance)`,
    oda_share = `ODA-like` / total * 100
  )

composition_wide

# A tibble: 147 × 7
   commitment_year recipient_region `ODA-like` `OOF-like` Vague (Official Fina…¹
             <int> <chr>                 <dbl>      <dbl>                  <dbl>
 1            2000 Africa              0.359      0.994                  0      
 2            2000 America             0.0890     0                      0      
 3            2000 Asia                0.964      2.55                   0      
 4            2000 Europe              0.00308    0.00438                0      
 5            2000 Middle East         0.00248    0.416                  0      
 6            2000 Oceania             0.0272     0.0276                 0.0128 
 7            2001 Africa              2.56       0.505                  0.0234 
 8            2001 America             0.0804     0.880                  0.00911
 9            2001 Asia                0.834      1.53                   0.0714 
10            2001 Europe              0.0121     0.0589                 0.0996 
# ℹ 137 more rows
# ℹ abbreviated name: ¹​`Vague (Official Finance)`
# ℹ 2 more variables: total <dbl>, oda_share <dbl>
…
Here’s a starting point:

# Start with annual regional totals
regional_patterns <- get_gcdf3_dataset() |>
  filter(recommended_for_aggregates == "Yes") |>
  group_by(commitment_year, recipient_region) |>
  summarize(
    amount_bn = sum(amount_constant_usd_2021, na.rm = TRUE) / 1e9,
    .groups = "drop"
  )

regional_patterns

# A tibble: 147 × 3
   commitment_year recipient_region amount_bn
             <int> <chr>                <dbl>
 1            2000 Africa             1.35   
 2            2000 America            0.0890 
 3            2000 Asia               3.51   
 4            2000 Europe             0.00746
 5            2000 Middle East        0.419  
 6            2000 Oceania            0.0677 
 7            2001 Africa             3.09   
 8            2001 America            0.970  
 9            2001 Asia               2.44   
10            2001 Europe             0.171  
# ℹ 137 more rows

# Pivot to calculate regional shares over time
regional_shares <- regional_patterns |>
  group_by(commitment_year) |>
  mutate(
    year_total = sum(amount_bn),
    share = amount_bn / year_total * 100
  ) |>
  ungroup()

regional_shares

# A tibble: 147 × 5
   commitment_year recipient_region amount_bn year_total  share
             <int> <chr>                <dbl>      <dbl>  <dbl>
 1            2000 Africa             1.35          5.45 24.8  
 2            2000 America            0.0890        5.45  1.63 
 3            2000 Asia               3.51          5.45 64.5  
 4            2000 Europe             0.00746       5.45  0.137
 5            2000 Middle East        0.419         5.45  7.69 
 6            2000 Oceania            0.0677        5.45  1.24 
 7            2001 Africa             3.09          7.87 39.3  
 8            2001 America            0.970         7.87 12.3  
 9            2001 Asia               2.44          7.87 31.0  
10            2001 Europe             0.171         7.87  2.17 
# ℹ 137 more rows
…
sector_patterns

# A tibble: 48 × 5
   period               sector_name    total_amount_bn project_count avg_size_bn
   <chr>                <chr>                    <dbl>         <int>       <dbl>
 1 Post-BRI (2014-2021) ACTION RELATI…           6.76            190     0.0356 
 2 Post-BRI (2014-2021) AGRICULTURE, …           5.77            401     0.0144 
 3 Post-BRI (2014-2021) BANKING AND F…         217.              307     0.708  
 4 Post-BRI (2014-2021) BUSINESS AND …          12.6             153     0.0824 
 5 Post-BRI (2014-2021) COMMUNICATIONS          23.1             279     0.0829 
 6 Post-BRI (2014-2021) DEVELOPMENTAL…           0.977           188     0.00520
 7 Post-BRI (2014-2021) DISASTER PREV…           0.226            27     0.00838
 8 Post-BRI (2014-2021) EDUCATION                5.47           1647     0.00332
 9 Post-BRI (2014-2021) EMERGENCY RES…           1.30            563     0.00230
10 Post-BRI (2014-2021) ENERGY                 162.              611     0.266  
# ℹ 38 more rows

# Pivot wider to compare periods
sector_comparison <- sector_patterns |>
  pivot_wider(
    names_from = period,
    values_from = c(total_amount_bn, project_count, avg_size_bn),
    values_fill = 0
  )

sector_comparison

# A tibble: 24 × 7
   sector_name                     total_amount_bn_Post…¹ total_amount_bn_Pre-…²
   <chr>                                            <dbl>                  <dbl>
 1 ACTION RELATING TO DEBT                          6.76                15.4    
 2 AGRICULTURE, FORESTRY, FISHING                   5.77                 9.30   
 3 BANKING AND FINANCIAL SERVICES                 217.                  15.2    
 4 BUSINESS AND OTHER SERVICES                     12.6                  5.93   
 5 COMMUNICATIONS                                  23.1                 37.7    
 6 DEVELOPMENTAL FOOD AID/FOOD SE…                  0.977                1.08   
 7 DISASTER PREVENTION AND PREPAR…                  0.226                0.00819
 8 EDUCATION                                        5.47                 3.82   
 9 EMERGENCY RESPONSE                               1.30                 0.848  
10 ENERGY                                         162.                 116.     
# ℹ 14 more rows
# ℹ abbreviated names: ¹​`total_amount_bn_Post-BRI (2014-2021)`,
#   ²​`total_amount_bn_Pre-BRI (2000-2013)`
# ℹ 4 more variables: `project_count_Post-BRI (2014-2021)` <int>,
#   `project_count_Pre-BRI (2000-2013)` <int>,
#   `avg_size_bn_Post-BRI (2014-2021)` <dbl>,
#   `avg_size_bn_Pre-BRI (2000-2013)` <dbl>
…
regional_shifts

# A tibble: 21 × 3
   period                recipient_region total_amount_bn
   <fct>                 <chr>                      <dbl>
 1 Pre-BRI (2000-2013)   Africa                    147.  
 2 Pre-BRI (2000-2013)   America                   143.  
 3 Pre-BRI (2000-2013)   Asia                      204.  
 4 Pre-BRI (2000-2013)   Europe                    131.  
 5 Pre-BRI (2000-2013)   Middle East                26.9 
 6 Pre-BRI (2000-2013)   Multi-Region                3.39
 7 Pre-BRI (2000-2013)   Oceania                     8.70
 8 Early BRI (2014-2017) Africa                    113.  
 9 Early BRI (2014-2017) America                   135.  
10 Early BRI (2014-2017) Asia                      140.  
# ℹ 11 more rows

# Calculate shares within each period
regional_shares <- regional_shifts |>
  group_by(period) |>
  mutate(
    period_total = sum(total_amount_bn),
    share = total_amount_bn / period_total * 100
  ) |>
  ungroup()

regional_shares

# A tibble: 21 × 5
   period                recipient_region total_amount_bn period_total  share
   <fct>                 <chr>                      <dbl>        <dbl>  <dbl>
 1 Pre-BRI (2000-2013)   Africa                    147.           664. 22.2  
 2 Pre-BRI (2000-2013)   America                   143.           664. 21.6  
 3 Pre-BRI (2000-2013)   Asia                      204.           664. 30.7  
 4 Pre-BRI (2000-2013)   Europe                    131.           664. 19.7  
 5 Pre-BRI (2000-2013)   Middle East                26.9          664.  4.05 
 6 Pre-BRI (2000-2013)   Multi-Region                3.39         664.  0.510
 7 Pre-BRI (2000-2013)   Oceania                     8.70         664.  1.31 
 8 Early BRI (2014-2017) Africa                    113.           469. 24.1  
 9 Early BRI (2014-2017) America                   135.           469. 28.8  
10 Early BRI (2014-2017) Asia                      140.           469. 29.8  
# ℹ 11 more rows
…
sector_evolution

# A tibble: 109 × 5
   commitment_year sector_name          amount_bn project_count avg_project_size
             <int> <chr>                    <dbl>         <int>            <dbl>
 1            2000 ENERGY                 1.26               14         0.0900  
 2            2000 INDUSTRY, MINING, C…   2.03               30         0.0677  
 3            2000 OTHER MULTISECTOR      0.00155             3         0.000517
 4            2000 TRANSPORT AND STORA…   0.0927              7         0.0132  
 5            2001 BANKING AND FINANCI…   0.0905              1         0.0905  
 6            2001 ENERGY                 1.45               13         0.112   
 7            2001 INDUSTRY, MINING, C…   0.695              14         0.0496  
 8            2001 OTHER MULTISECTOR      0                   3         0       
 9            2001 TRANSPORT AND STORA…   1.51               21         0.0720  
10            2002 BANKING AND FINANCI…   0.632               3         0.211   
# ℹ 99 more rows
…
sector_trends

# A tibble: 109 × 6
   commitment_year sector_name          amount_bn project_count avg_project_size
             <int> <chr>                    <dbl>         <int>            <dbl>
 1            2000 ENERGY                 1.26               14         0.0900  
 2            2000 INDUSTRY, MINING, C…   2.03               30         0.0677  
 3            2000 OTHER MULTISECTOR      0.00155             3         0.000517
 4            2000 TRANSPORT AND STORA…   0.0927              7         0.0132  
 5            2001 BANKING AND FINANCI…   0.0905              1         0.0905  
 6            2001 ENERGY                 1.45               13         0.112   
 7            2001 INDUSTRY, MINING, C…   0.695              14         0.0496  
 8            2001 OTHER MULTISECTOR      0                   3         0       
 9            2001 TRANSPORT AND STORA…   1.51               21         0.0720  
10            2002 BANKING AND FINANCI…   0.632               3         0.211   
# ℹ 99 more rows
# ℹ 1 more variable: moving_avg <dbl>
…
country_correlations

# A tibble: 210 × 3
   item1      item2  correlation
   <chr>      <chr>        <dbl>
 1 Argentina  Angola     0.144  
 2 Brazil     Angola     0.594  
 3 Ecuador    Angola     0.504  
 4 Egypt      Angola     0.0198 
 5 Indonesia  Angola     0.481  
 6 Iran       Angola     0.190  
 7 Kazakhstan Angola    -0.00985
 8 Laos       Angola     0.599  
 9 Mongolia   Angola     0.480  
10 Pakistan   Angola     0.213  
# ℹ 200 more rows
…
