5 Week 3: Find Actionable Insights, Quickly (Pre-Class) – Applied Data Analysis for Chinese Lending Data Using R & LLMs
…
Let’s explore each one using real examples from Chinese development finance data.

5.4.1 1. filter(): Subsetting Your Data

filter() helps you focus on specific parts of your data. Think of it like a sieve that keeps only the rows you want:

# Get ODA-like projects over $100 million
get_gcdf3_dataset() |>
  filter(
    flow_class == "ODA-like",
    amount_constant_usd_2021 >= 100 * 1e6
  )

# A tibble: 420 × 129
   country_name iso3c country_or_regional aid_data_record_id
   <chr>        <chr> <chr>                            <int>
 1 Kenya        KEN   country                          97295
 2 Kyrgyzstan   KGZ   country                          97658
 3 Sri Lanka    LKA   country                          89483
 4 Tajikistan   TJK   country                          92674
 5 Uzbekistan   UZB   country                          92623
 6 Cambodia     KHM   country                          92800
 7 Cambodia     KHM   country                          94984
 8 North Korea  PRK   country                          93442
 9 North Korea  PRK   country                          93443
10 North Korea  PRK   country                          95607
# ℹ 410 more rows
# ℹ 125 more variables: recommended_for_aggregates <chr>,
#   aid_data_parent_id <chr>, umbrella <chr>, financier_country <chr>,
#   recipient <chr>, recipient_iso_3 <chr>, recipient_region <chr>,
#   commitment_year <int>, implementation_start_year <int>,
#   completion_year <int>, title <chr>, description <chr>,
#   staff_comments <chr>, status <chr>, intent <chr>, flow_type <chr>, …

Common filtering operations you’ll use:

# Projects from 2018-2021
get_gcdf3_dataset() |>
  filter(commitment_year >= 2018)

# A tibble: 6,528 × 129
   country_name iso3c country_or_regional aid_data_record_id
   <chr>        <chr> <chr>                            <int>
 1 Afghanistan  AFG   country                          94556
 2 Afghanistan  AFG   country                          94564
 3 Afghanistan  AFG   country                          94565
 4 Afghanistan  AFG   country                          94567
 5 Afghanistan  AFG   country                          94568
 6 Afghanistan  AFG   country                          94613
 7 Afghanistan  AFG   country                          94619
 8 Afghanistan  AFG   country                          95312
 9 Afghanistan  AFG   country                          95322
10 Afghanistan  AFG   country                          95323
# ℹ 6,518 more rows
# ℹ 125 more variables: recommended_for_aggregates <chr>,
#   aid_data_parent_id <chr>, umbrella <chr>, financier_country <chr>,
#   recipient <chr>, recipient_iso_3 <chr>, recipient_region <chr>,
#   commitment_year <int>, implementation_start_year <int>,
#   completion_year <int>, title <chr>, description <chr>,
#   staff_comments <chr>, status <chr>, intent <chr>, flow_type <chr>, …

# Projects in specific countries
get_gcdf3_dataset() |>
  filter(country_name %in% c("Angola", "Ethiopia", "Kenya"))

# A tibble: 963 × 129
   country_name iso3c country_or_regional aid_data_record_id
   <chr>        <chr> <chr>                            <int>
 1 Angola       AGO   country                          92519
 2 Angola       AGO   country                          93104
 3 Angola       AGO   country                          93281
 4 Angola       AGO   country                          93286
 5 Angola       AGO   country                          95331
 6 Ethiopia     ETH   country                          91947
 7 Ethiopia     ETH   country                          92357
 8 Ethiopia     ETH   country                          95864
 9 Ethiopia     ETH   country                          95866
10 Ethiopia     ETH   country                          95869
# ℹ 953 more rows
# ℹ 125 more variables: recommended_for_aggregates <chr>,
#   aid_data_parent_id <chr>, umbrella <chr>, financier_country <chr>,
#   recipient <chr>, recipient_iso_3 <chr>, recipient_region <chr>,
#   commitment_year <int>, implementation_start_year <int>,
#   completion_year <int>, title <chr>, description <chr>,
#   staff_comments <chr>, status <chr>, intent <chr>, flow_type <chr>, …

# Projects with complete documentation
get_gcdf3_dataset() |>
  filter(
    !is.na(amount_constant_usd_2021),
    recommended_for_aggregates == "Yes"
  )

# A tibble: 10,671 × 129
   country_name     iso3c country_or_regional aid_data_record_id
   <chr>            <chr> <chr>                            <int>
 1 Afghanistan      AFG   country                          94556
 2 Afghanistan      AFG   country                          94564
 3 Afghanistan      AFG   country                          94565
 4 Afghanistan      AFG   country                          94567
 5 Afghanistan      AFG   country                          94568
 6 Afghanistan      AFG   country                          94619
 7 Afghanistan      AFG   country                          98007
 8 Afghanistan      AFG   country                          98008
 9 Africa, regional <NA>  regional                         92947
10 Algeria          DZA   country                          94808
# ℹ 10,661 more rows
# ℹ 125 more variables: recommended_for_aggregates <chr>,
#   aid_data_parent_id <chr>, umbrella <chr>, financier_country <chr>,
#   recipient <chr>, recipient_iso_3 <chr>, recipient_region <chr>,
#   commitment_year <int>, implementation_start_year <int>,
#   completion_year <int>, title <chr>, description <chr>,
#   staff_comments <chr>, status <chr>, intent <chr>, flow_type <chr>, …
…
!is.na(): Is not missing

&: And (multiple conditions)

|: Or (either condition)

5.4.2 2. arrange(): Ordering Your Data

arrange() lets you sort your data. By default, it sorts in ascending order (smallest to largest):

# Sort projects by size (largest first)
get_gcdf3_dataset() |>
  arrange(desc(amount_constant_usd_2021)) # sorted by largest to smallest

# A tibble: 20,985 × 129
   country_name iso3c country_or_regional aid_data_record_id
   <chr>        <chr> <chr>                            <int>
 1 Venezuela    VEN   country                          58677
 2 Russia       RUS   country                          85211
 3 Indonesia    IDN   country                          49338
 4 Nigeria      NGA   country                          34652
 5 Iran         IRN   country                          41271
 6 Kazakhstan   KAZ   country                          53932
 7 Guinea       GIN   country                          64352
 8 Russia       RUS   country                          43069
 9 Indonesia    IDN   country                          68792
10 Argentina    ARG   country                          89416
# ℹ 20,975 more rows
# ℹ 125 more variables: recommended_for_aggregates <chr>,
#   aid_data_parent_id <chr>, umbrella <chr>, financier_country <chr>,
#   recipient <chr>, recipient_iso_3 <chr>, recipient_region <chr>,
#   commitment_year <int>, implementation_start_year <int>,
#   completion_year <int>, title <chr>, description <chr>,
#   staff_comments <chr>, status <chr>, intent <chr>, flow_type <chr>, …

# Sort by multiple columns
get_gcdf3_dataset() |>
  arrange(
    country_name, # country A-Z
    desc(commitment_year) # sorted by most recent year
  )

# A tibble: 20,985 × 129
   country_name iso3c country_or_regional aid_data_record_id
   <chr>        <chr> <chr>                            <int>
 1 Afghanistan  AFG   country                          94556
 2 Afghanistan  AFG   country                          94564
 3 Afghanistan  AFG   country                          94565
 4 Afghanistan  AFG   country                          94567
 5 Afghanistan  AFG   country                          94568
 6 Afghanistan  AFG   country                          94613
 7 Afghanistan  AFG   country                          94619
 8 Afghanistan  AFG   country                          95312
 9 Afghanistan  AFG   country                          95322
10 Afghanistan  AFG   country                          95323
# ℹ 20,975 more rows
# ℹ 125 more variables: recommended_for_aggregates <chr>,
#   aid_data_parent_id <chr>, umbrella <chr>, financier_country <chr>,
#   recipient <chr>, recipient_iso_3 <chr>, recipient_region <chr>,
#   commitment_year <int>, implementation_start_year <int>,
#   completion_year <int>, title <chr>, description <chr>,
#   staff_comments <chr>, status <chr>, intent <chr>, flow_type <chr>, …
…
5.4.3 3. select(): Choosing Columns

select() helps you focus on specific variables. It’s particularly useful when you have datasets with many columns:

# Select key financial variables
get_gcdf3_dataset() |>
  select(
    aid_data_record_id,
    recipient,
    amount_constant_usd_2021,
    flow_class
  )

# A tibble: 20,985 × 4
   aid_data_record_id recipient   amount_constant_usd_2021 flow_class
                <int> <chr>                          <dbl> <chr>     
 1              94556 Afghanistan                 7111456. ODA-like  
 2              94564 Afghanistan                12600000  ODA-like  
 3              94565 Afghanistan                14400000  ODA-like  
 4              94567 Afghanistan                13000000  ODA-like  
 5              94568 Afghanistan                 7500000  ODA-like  
 6              94613 Afghanistan                      NA  ODA-like  
 7              94619 Afghanistan                 3600000  ODA-like  
 8              95312 Afghanistan                 4651163. ODA-like  
 9              95322 Afghanistan                      NA  ODA-like  
10              95323 Afghanistan                      NA  ODA-like  
# ℹ 20,975 more rows

# Select columns by pattern
get_gcdf3_dataset() |>
  select(
    starts_with("amount"),
    contains("year")
  )

# A tibble: 20,985 × 7
   amount_original_currency amount_estimated amount_constant_usd_2021
                      <dbl> <chr>                               <dbl>
 1                550000000 <NA>                             7111456.
 2                 12600000 Yes                             12600000 
 3                 14400000 Yes                             14400000 
 4                 13000000 <NA>                            13000000 
 5                  7500000 <NA>                             7500000 
 6                       NA <NA>                                  NA 
 7                  3600000 Yes                              3600000 
 8                 30000000 <NA>                             4651163.
 9                       NA <NA>                                  NA 
10                       NA <NA>                                  NA 
# ℹ 20,975 more rows
# ℹ 4 more variables: amount_nominal_usd <dbl>, commitment_year <int>,
#   implementation_start_year <int>, completion_year <int>
…
everything(): All remaining columns

5.4.4 4. mutate(): Creating New Variables

mutate() lets you create new columns based on existing ones:

# Convert amounts to billions and calculate shares
get_gcdf3_dataset() |>
  group_by(commitment_year) |>
  mutate(
    amount_bn = amount_constant_usd_2021 / 1e9,
    share_of_year = amount_constant_usd_2021 / sum(amount_constant_usd_2021, na.rm = TRUE)
  )

# A tibble: 20,985 × 131
# Groups:   commitment_year [22]
   country_name iso3c country_or_regional aid_data_record_id
   <chr>        <chr> <chr>                            <int>
 1 Afghanistan  AFG   country                          94556
 2 Afghanistan  AFG   country                          94564
 3 Afghanistan  AFG   country                          94565
 4 Afghanistan  AFG   country                          94567
 5 Afghanistan  AFG   country                          94568
 6 Afghanistan  AFG   country                          94613
 7 Afghanistan  AFG   country                          94619
 8 Afghanistan  AFG   country                          95312
 9 Afghanistan  AFG   country                          95322
10 Afghanistan  AFG   country                          95323
# ℹ 20,975 more rows
# ℹ 127 more variables: recommended_for_aggregates <chr>,
#   aid_data_parent_id <chr>, umbrella <chr>, financier_country <chr>,
#   recipient <chr>, recipient_iso_3 <chr>, recipient_region <chr>,
#   commitment_year <int>, implementation_start_year <int>,
#   completion_year <int>, title <chr>, description <chr>,
#   staff_comments <chr>, status <chr>, intent <chr>, flow_type <chr>, …
…
summarize() collapses groups into single rows:

# Calculate total lending by year and flow class
get_gcdf3_dataset() |>
  group_by(commitment_year, flow_class) |>
  summarize(
    total_amount_bn = sum(amount_constant_usd_2021, na.rm = TRUE) / 1e9,
    project_count = n(),
    avg_amount_bn = mean(amount_constant_usd_2021, na.rm = TRUE) / 1e9
  )

`summarise()` has grouped output by 'commitment_year'. You can override using
the `.groups` argument.

# A tibble: 66 × 5
# Groups:   commitment_year [22]
   commitment_year flow_class        total_amount_bn project_count avg_amount_bn
             <int> <chr>                       <dbl>         <int>         <dbl>
 1            2000 ODA-like                   4.67             173        0.0368
 2            2000 OOF-like                   9.13              39        0.261 
 3            2000 Vague (Official …          0.0210             3        0.0105
 4            2001 ODA-like                   4.02             233        0.0222
 5            2001 OOF-like                   6.56              41        0.168 
 6            2001 Vague (Official …          0.424             11        0.0471
 7            2002 ODA-like                   4.39             264        0.0213
 8            2002 OOF-like                   5.64              45        0.141 
 9            2002 Vague (Official …          1.18              12        0.236 
10            2003 ODA-like                   4.92             317        0.0231
# ℹ 56 more rows
…
    recommended_for_aggregates == "Yes",  # recommended projects
    !is.na(amount_constant_usd_2021)      # with non-missing amounts
  ) |>                                    # AND THEN...
  group_by(recipient_region) |>           # For each region...
  slice_max(                              # Find the projects...
    order_by = amount_constant_usd_2021,  # ordered by size
    n = 5                                 # keeping top 5
  ) |>                                    # AND THEN...
  arrange(                                # Sort the results...
    recipient_region,                     # by region
    desc(amount_constant_usd_2021)        # and size (descending)
  ) |>                                    # AND THEN...
  ungroup()                               # remove grouping

# A tibble: 35 × 129
   country_name     iso3c country_or_regional aid_data_record_id
   <chr>            <chr> <chr>                            <int>
 1 Angola           AGO   country                          53063
 2 Angola           AGO   country                          47101
 3 Congo - Kinshasa COD   country                          73145
 4 Egypt            EGY   country                          89406
 5 Egypt            EGY   country                          89408
 6 Argentina        ARG   country                          89416
 7 Argentina        ARG   country                          96263
 8 Argentina        ARG   country                          96264
 9 Argentina        ARG   country                          96322
10 Venezuela        VEN   country                          37808
# ℹ 25 more rows
# ℹ 125 more variables: recommended_for_aggregates <chr>,
#   aid_data_parent_id <chr>, umbrella <chr>, financier_country <chr>,
#   recipient <chr>, recipient_iso_3 <chr>, recipient_region <chr>,
#   commitment_year <int>, implementation_start_year <int>,
#   completion_year <int>, title <chr>, description <chr>,
#   staff_comments <chr>, status <chr>, intent <chr>, flow_type <chr>, …
…
5.6.1 Pattern 1: Annual Flows

# Calculate annual lending flows
annual_flows <- get_gcdf3_dataset() |>
  filter(recommended_for_aggregates == "Yes") |>
  group_by(commitment_year, flow_class) |>
  summarize(
    total_amount_bn = sum(amount_constant_usd_2021, na.rm = TRUE) / 1e9,
    project_count = n(),
    .groups = "drop"
  )

annual_flows

# A tibble: 66 × 4
   commitment_year flow_class               total_amount_bn project_count
             <int> <chr>                              <dbl>         <int>
 1            2000 ODA-like                          1.44             138
 2            2000 OOF-like                          3.99              34
 3            2000 Vague (Official Finance)          0.0128             2
 4            2001 ODA-like                          3.50             175
 5            2001 OOF-like                          4.16              33
 6            2001 Vague (Official Finance)          0.204              6
 7            2002 ODA-like                          2.27             199
 8            2002 OOF-like                          4.89              38
 9            2002 Vague (Official Finance)          0.429              8
10            2003 ODA-like                          3.52             236
# ℹ 56 more rows
…
sector_analysis

# A tibble: 24 × 4
   sector_name                    total_amount_bn project_count avg_amount_bn
   <chr>                                    <dbl>         <int>         <dbl>
 1 BANKING AND FINANCIAL SERVICES          211.             292        0.746 
 2 ENERGY                                  142.             524        0.310 
 3 INDUSTRY, MINING, CONSTRUCTION          130.             427        0.333 
 4 TRANSPORT AND STORAGE                   104.             648        0.195 
 5 GENERAL BUDGET SUPPORT                   51.7             63        0.833 
 6 OTHER MULTISECTOR                        24.6            168        0.262 
 7 COMMUNICATIONS                           18.9            248        0.116 
 8 BUSINESS AND OTHER SERVICES              11.9            140        0.0967
 9 UNALLOCATED/UNSPECIFIED                  11.5            105        0.121 
10 WATER SUPPLY AND SANITATION               8.33           173        0.0801
# ℹ 14 more rows
…
