3 Week 2: Make Cool Charts, Right Away (Pre-Class) – Applied Data Analysis for Chinese Lending Data Using R & LLMs
…
gcdf_project_features

# A tibble: 17,957 × 5
   total_amount_bn data_quality flow_class commitment_year total_source_count
             <dbl>        <dbl> <chr>                <int>              <int>
 1         0.00711            8 ODA-like              2021                  7
 2         0.0126             8 ODA-like              2021                  9
 3         0.0144             7 ODA-like              2021                  2
 4         0.013              9 ODA-like              2021                 11
 5         0.0075             9 ODA-like              2021                  5
 6        NA                  6 ODA-like              2021                  1
 7         0.0036             7 ODA-like              2021                 10
 8        NA                  6 ODA-like              2021                  1
 9        NA                  6 ODA-like              2021                  2
10        NA                  6 ODA-like              2021                  1
# ℹ 17,947 more rows
…
